module github.com/dbriemann/vigor

go 1.22.0

toolchain go1.23.1

require (
	github.com/hajimehoshi/ebiten/v2 v2.8.1
	github.com/quasilyte/ebitengine-input v0.9.1
	github.com/stretchr/testify v1.8.4
	github.com/tanema/gween v0.0.0-20221212145351-621cc8a459d1
	golang.org/x/exp v0.0.0-20240119083558-1b970713d09a
)

require (
	github.com/davecgh/go-spew v1.1.1 // indirect
	github.com/ebitengine/gomobile v0.0.0-20240911145611-4856209ac325 // indirect
	github.com/ebitengine/hideconsole v1.0.0 // indirect
	github.com/ebitengine/purego v0.8.0 // indirect
	github.com/go-text/typesetting v0.2.0 // indirect
	github.com/jezek/xgb v1.1.1 // indirect
	github.com/niemeyer/pretty v0.0.0-20200227124842-a10e7caefd8e // indirect
	github.com/pmezard/go-difflib v1.0.0 // indirect
	github.com/quasilyte/gmath v0.0.0-20221217210116-fba37a2e15c7 // indirect
	golang.org/x/image v0.20.0 // indirect
	golang.org/x/sync v0.8.0 // indirect
	golang.org/x/sys v0.25.0 // indirect
	golang.org/x/text v0.18.0 // indirect
	gopkg.in/check.v1 v1.0.0-20200902074654-038fdea0a05b // indirect
	gopkg.in/yaml.v3 v3.0.1 // indirect
)
